[gd_scene load_steps=6 format=2]

[ext_resource path="res://Assets/Enemy/Enemy_Follower.png" type="Texture" id=1]
[ext_resource path="res://Enemy/Enemy_Follow01.gd" type="Script" id=2]
[ext_resource path="res://Assets/Sounds/shade13.wav" type="AudioStream" id=3]

[sub_resource type="Animation" id=1]
resource_name = "bomb"
length = 0.9
loop = true
tracks/0/type = "value"
tracks/0/path = NodePath("Sprite:frame")
tracks/0/interp = 1
tracks/0/loop_wrap = true
tracks/0/imported = false
tracks/0/enabled = true
tracks/0/keys = {
"times": PoolRealArray( 0, 0.3, 0.6 ),
"transitions": PoolRealArray( 1, 1, 1 ),
"update": 1,
"values": [ 2, 1, 0 ]
}

[sub_resource type="Animation" id=2]
resource_name = "fall"
length = 0.4
tracks/0/type = "value"
tracks/0/path = NodePath("Sprite:scale")
tracks/0/interp = 1
tracks/0/loop_wrap = true
tracks/0/imported = false
tracks/0/enabled = true
tracks/0/keys = {
"times": PoolRealArray( 0, 0.1, 0.2, 0.3, 0.4 ),
"transitions": PoolRealArray( 1, 1, 1, 1, 1 ),
"update": 0,
"values": [ Vector2( 1, 1 ), Vector2( 0.7, 0.7 ), Vector2( 0.4, 0.4 ), Vector2( 0.1, 0.1 ), Vector2( 1e-05, 1e-05 ) ]
}

[node name="Enemy_Follower" type="Area2D"]
collision_layer = 16
collision_mask = 35
script = ExtResource( 2 )

[node name="Sprite" type="Sprite" parent="."]
scale = Vector2( 0.7, 0.7 )
texture = ExtResource( 1 )
hframes = 3
frame = 2

[node name="CollisionShape2D" type="CollisionPolygon2D" parent="."]
visible = false
polygon = PoolVector2Array( -29.0972, -22.7118, 19.7247, -21.1369, 34.2138, -1.29317, 37.6786, 11.621, 27.9142, 17.2907, 23.1895, 17.6057, 17.5198, 25.1652, -29.0972, 24.8502, -39.8066, -0.348228 )

[node name="AnimationPlayer" type="AnimationPlayer" parent="."]
anims/bomb = SubResource( 1 )
anims/fall = SubResource( 2 )

[node name="VisibilityNotifier2D" type="VisibilityNotifier2D" parent="."]
position = Vector2( -1.28135, 2.0831 )
scale = Vector2( 3.47327, 2.54981 )

[node name="AudioAttack" type="AudioStreamPlayer2D" parent="."]
stream = ExtResource( 3 )
[connection signal="area_entered" from="." to="." method="_on_Enemy_Follower_area_entered"]
[connection signal="body_entered" from="." to="." method="_on_Enemy_Follower_body_entered"]
