[gd_scene load_steps=2 format=2]

[sub_resource type="ParticlesMaterial" id=1]
lifetime_randomness = 1.0
emission_shape = 2
emission_box_extents = Vector3( 10, 0, 0 )
flag_disable_z = true
spread = 8.0
gravity = Vector3( 0, 0, 0 )
initial_velocity = -100.0
initial_velocity_random = 0.5
angular_velocity_random = 0.36
orbit_velocity = 0.0
orbit_velocity_random = 0.0

[node name="Particles2D" type="Particles2D"]
lifetime = 8.0
preprocess = 18.0
draw_order = 1
process_material = SubResource( 1 )
